{
	"distances": {
		"gas": {
			"min":50,
			"max":200,
			"div":10
		},
		"rock": {
			"min":2,
			"max":50,
			"div":10
		},
		"asteroids": {
			"min":2,
			"max":400,
			"div":10
		},
		"debris": {
			"min":2,
			"max":400,
			"div":10
		},
		"subnodes": {
			"min":2,
			"max":100,
			"div":10
		}
	},
	"subnodes": {
		"gas": {
			"min":2,
			"max":6
		},
		"rock": {
			"min":0,
			"max":2				
		},
		"types":[
			{
				"type":"moon",
				"chance":60
			},
			{
				"type":"asteroids",
				"chance":20
			},
			{
				"type":"debris",
				"chance":20
			}
		]
	},
	"orbitals": {
		"chanceOfEllipse":30,
		"ellipse":{
			"e":{
				"div":1000,
				"min":850,
				"max":1000
			},
			"dir":{
				"min":1,
				"max":360000,
				"div":1000	
			}
		},
		"chanceOfIncl":40,
		"incl": {
			"min":1,
			"max":20000,
			"div":1000
		},
		"angle": {
			"min":1,
			"max":360000,
			"div":1000
		}

	},
	"aspects": {
		"rotation":{
			"v": {
				"min":1,
				"max":100,
				"div":100
			},
			"chanceOfOffset":30,
			"offset":{
				"min":1,
				"max":90000,
				"div":1000
			}
		},
		"pctHasWater":70,
		"pctHasRing":25,
		"ring": {
			"count": {
				"min":1,
				"max":3
			},
			"offset": {
				"min":1,
				"max":180000,
				"div":1000
			}
		},
		"objectCounter": {
			"asteroids":{
				"min":30,
				"max":50
			},
			"debris":{
				"min":70,
				"max":100
			}
		}
	},
	"atmospheres": {
		"density": {
			"rock":{
				"min":2,
				"max":4
			},
			"moon":{
				"min":1,
				"max":3
			}
		},
		"conditionals": {
			"gas":[
				{
					"type":"toxic",
					"chance":80,
					"conditional":{
						"min":1,
						"max":4,
						"div":10
					}

				},
				{
					"type":"neutral",
					"chance":19,
					"conditional":{
						"min":5,
						"max":7,
						"div":10
					}

				},
				{
					"type":"clean",
					"chance":1,
					"conditional":{
						"min":8,
						"max":10,
						"div":10
					}

				}		
			],
			"rock":[
				{
					"type":"toxic",
					"chance":33,
					"conditional":{
						"min":1,
						"max":4,
						"div":10
					}

				},
				{
					"type":"neutral",
					"chance":45,
					"conditional":{
						"min":5,
						"max":7,
						"div":10
					}

				},			
				{
					"type":"clean",
					"chance":15,
					"conditional":{
						"min":7,
						"max":14,
						"div":10
					}

				},
				{
					"type":"none",
					"chance":80,
					"conditional":{
						"min":1,
						"max":1,
						"div":10
					}

				}			
			],
			"moon":[
				{
					"type":"toxic",
					"chance":25,
					"conditional":{
						"min":1,
						"max":4,
						"div":10
					}

				},
				{
					"type":"neutral",
					"chance":12,
					"conditional":{
						"min":5,
						"max":7,
						"div":10
					}

				},			
				{
					"type":"clean",
					"chance":8,
					"conditional":{
						"min":7,
						"max":11,
						"div":10
					}

				},
				{
					"type":"none",
					"chance":55,
					"conditional":{
						"min":1,
						"max":1,
						"div":10
					}

				}
			]
		}
	},
	"surfaces":{
		"conditionals":{
			"rock":[
				{
					"type":"volcanic",
					"chance":20,
					"conditional":{
						"min":3,
						"max":4,
						"div":10
					}

				},
				{
					"type":"barren",
					"chance":30,
					"conditional":{
						"min":1,
						"max":1,
						"div":10
					}

				},			
				{
					"type":"desert",
					"chance":20,
					"conditional":{
						"min":3,
						"max":7,
						"div":10
					}

				},
				{
					"type":"water",
					"chance":10,
					"conditional":{
						"min":9,
						"max":15,
						"div":10
					}

				},
				{
					"type":"broken",
					"chance":20,
					"conditional":{
						"min":1,
						"max":1,
						"div":10
					}

				}			
			],
			"moon":[
				{
					"type":"volcanic",
					"chance":20,
					"conditional":{
						"min":3,
						"max":4,
						"div":10
					}

				},
				{
					"type":"barren",
					"chance":30,
					"conditional":{
						"min":1,
						"max":1,
						"div":10
					}

				},			
				{
					"type":"desert",
					"chance":20,
					"conditional":{
						"min":3,
						"max":7,
						"div":10
					}

				},
				{
					"type":"water",
					"chance":10,
					"conditional":{
						"min":9,
						"max":15,
						"div":10
					}

				},
				{
					"type":"broken",
					"chance":20,
					"conditional":{
						"min":1,
						"max":1,
						"div":10
					}

				}
			]
		},
		"quality": {
			"rock": [
				{
					"chance":75,
					"type":"poor",
					"conditional":{
						"min":1,
						"max":7,
						"div":10
					}
				},
				{
					"chance":20,
					"type":"normal",
					"conditional":{
						"min":8,
						"max":12,
						"div":10
					}
				},
				{
					"chance":5,
					"type":"rich",
					"conditional":{
						"min":12,
						"max":15,
						"div":10
					}
				}
			],
			"moon":[
				{
					"chance":50,
					"type":"poor",
					"conditional":{
						"min":1,
						"max":7,
						"div":10
					}
				},
				{
					"chance":30,
					"type":"normal",
					"conditional":{
						"min":8,
						"max":12,
						"div":10
					}
				},
				{
					"chance":20,
					"type":"rich",
					"conditional":{
						"min":12,
						"max":15,
						"div":10
					}
				}
			]
				
		}
	},
	"masses":{ 
		"gas":{
			"min":100,
			"max":10000,
			"div":100
		},
		"rock":{
			"min":100,
			"max":400,
			"div":100
		},
		"moon":{
			"min":100,
			"max":400,
			"div":10000
		},
		"asteroids":{
			"min":10,
			"max":50,
			"div":10000
		}
	},
	"sizes":{
		"gas":[
			{
				"type":"small",
				"chance":40,
				"conditional":{
					"min":30,
					"max":60,
					"div":10
				}

			},
			{
				"type":"medium",
				"chance":30,
				"conditional":{
					"min":60,
					"max":150,
					"div":10
				}

			},			
			{
				"type":"large",
				"chance":20,
				"conditional":{
					"min":150,
					"max":250,
					"div":10
				}

			},
			{
				"type":"super",
				"chance":10,
				"conditional":{
					"min":250,
					"max":500,
					"div":10
				}

			}
		],
		"rock":[
			{
				"type":"small",
				"chance":40,
				"conditional":{
					"min":10,
					"max":20,
					"div":10
				}

			},
			{
				"type":"medium",
				"chance":30,
				"conditional":{
					"min":20,
					"max":30,
					"div":10
				}

			},			
			{
				"type":"large",
				"chance":20,
				"conditional":{
					"min":30,
					"max":50,
					"div":10
				}

			},
			{
				"type":"super",
				"chance":10,
				"conditional":{
					"min":50,
					"max":100,
					"div":10
				}

			}
		],
		"moon":[
			{
				"type":"small",
				"chance":60,
				"conditional":{
					"min":1,
					"max":3,
					"div":10
				}

			},
			{
				"type":"medium",
				"chance":30,
				"conditional":{
					"min":3,
					"max":5,
					"div":10
				}

			},			
			{
				"type":"large",
				"chance":10,
				"conditional":{
					"min":5,
					"max":7,
					"div":10
				}

			}
		]

	},
	"seeds":{
		"gas":{
			"pop":15000000000
		},
		"rock":{
			"pop":90000000000
		},
		"moon":{
			"pop":500000000
		},
		"asteroids":{
			"pop":2500000
		}	
	},
	"resources":{
		"iron":{
			"rock":500,
			"gas":100,
			"moon":150,
			"asteroids":10,
			"debris":5
		},
		"gold":{
			"rock":300,
			"gas":50,
			"moon":75,
			"asteroids":50,
			"debris":5			
		},
		"titanium":{
			"rock":75,
			"gas":50,
			"moon":50,
			"asteroids":25,
			"debris":5			
		},
		"phosphorus":{
			"rock":500,
			"gas":100,
			"moon":100,
			"asteroids":25,
			"debris":5			
		},
		"feldspar":{
			"rock":300,
			"gas":150,
			"moon":150,
			"asteroids":10,
			"debris":5			
		},
		"halite":{
			"rock":150,
			"gas":75,
			"moon":75,
			"asteroids":50,
			"debris":10			
		},
		"terbium":{
			"rock":300,
			"gas":150,
			"moon":75,
			"asteroids":30,
			"debris":5			
		},
		"uranium":{
			"rock":150,
			"gas":50,
			"moon":50,
			"asteroids":35,
			"debris":1			
		},
		"argon":{
			"rock":150,
			"gas":500,
			"moon":20,
			"asteroids":0,
			"debris":0			
		},
		"neodymium":{
			"rock":100,
			"gas":2,
			"moon":75,
			"asteroids":30,
			"debris":10			
		},
		"tantalum":{
			"rock":15,
			"gas":5,
			"moon":5,
			"asteroids":30,
			"debris":50		
		},
		"h3":{
			"rock":25,
			"gas":300,
			"moon":50,
			"asteroids":10,
			"debris":5			
		}
	}

}